<svg width="90" height="72" viewBox="0 0 90 72" fill="none" xmlns="http://www.w3.org/2000/svg">
  <path
    d="M1.46425 45.0157L1.75747 42.1403C1.32529 42.3132 0.866848 41.7792 0.695068 41.4258C0.842777 39.8809 2.07915 37.9563 1.94019 36.3173C1.58679 35.477 1.76294 33.85 1.44674 33.094C1.21588 32.4725 0.525477 32.0283 1.57475 31.5009C2.36253 31.5501 3.01792 30.8674 3.38774 30.2733C4.03656 31.0282 5.82 30.8926 6.68437 30.7864L8.9919 31.3182C10.4734 30.863 12.3761 31.885 13.6792 30.9703C14.1945 29.1004 15.1475 26.0018 14.0085 24.2676C13.6398 24.0717 12.9833 23.4645 13.0019 22.9677C12.7043 21.4918 10.7655 20.8528 9.50395 20.5136C8.74462 20.9677 8.89342 19.8451 9.10131 19.4151L8.35073 19.1591L8.69867 18.6284L10.3103 18.5004C10.8311 17.8822 11.6846 18.1962 11.8301 18.9577C12.3454 18.752 13.2306 18.4512 13.7897 18.5179C14.0435 17.6426 13.3225 16.6021 13.3498 15.7716C14.2689 15.613 14.3324 15.9106 14.4855 16.706C15.3094 16.9555 16.9616 17.5835 16.4079 16.0462C17.1071 15.7104 18.396 14.8996 19.0634 14.5265C18.9649 12.905 19.2615 12.6457 20.8217 12.0734C22.1182 11.1686 23.6074 9.72105 24.1172 8.17285C26.5462 9.90924 27.6535 11.2222 28.6951 13.9958C29.1995 14.2103 30.2181 14.6633 30.5814 14.1239C31.2346 15.2202 32.6942 16.2246 33.1263 17.4927C37.4887 17.3898 37.1659 18.2739 40.7623 19.6175C42.3247 20.0584 41.6529 18.9654 43.3445 19.2696C44.1738 20.4895 44.7832 19.3626 45.7067 20.8079L47.9956 20.7707C48.163 22.529 47.2024 24.9667 48.0503 26.5751L50.1927 27.2163C50.964 29.1255 52.2015 27.7185 52.335 26.3552C52.6807 25.3924 53.6589 23.668 54.7519 23.3704C54.4434 21.2248 54.9335 20.751 57.077 21.0268C59.065 22.4732 60.716 22.7631 59.6405 25.7512C57.6787 26.26 56.229 26.051 56.8395 28.6441C57.1831 30.5206 58.5847 31.3806 59.9884 29.7426C61.0016 29.6146 64.1462 29.8094 62.7347 27.9844C63.0947 26.9767 62.8682 25.9329 64.2359 26.9953C65.0423 25.9898 66.1736 26.5106 65.6462 27.8005C65.2326 27.8946 64.621 28.0992 64.3464 28.4231C63.7873 29.003 64.4569 31.2657 63.3759 31.1694C62.7282 31.6563 63.1888 32.8128 62.3135 33.129C63.6243 36.5427 64.5958 35.7276 67.6791 36.3337C68.0489 36.3425 68.8367 36.3446 68.8138 35.7483L71.8718 34.2286L73.9048 34.4671C73.9463 34.4562 74.8523 34.0152 74.8928 34.3019C74.8282 35.1871 75.8195 35.1903 76.4125 34.9606C76.3884 35.4617 76.9082 36.4573 77.4016 35.7844C78.0822 35.9048 78.2671 36.3632 79.0319 36.3523C79.8218 36.8425 81.3219 36.7385 82.1261 36.3151C84.5157 37.0186 88.5804 38.6653 89.3047 41.2409C87.8178 47.193 89.4754 50.076 81.8154 47.6679C79.8645 51.1002 77.2736 55.1714 76.0296 58.967L76.5055 63.2702L75.3151 63.3435C75 62.9431 74.675 62.71 74.1794 62.7943V61.1998L73.9234 61.513C73.4124 62.268 74.0711 64.3184 72.6782 62.9409L71.7624 61.8785C71.839 61.3063 71.3445 60.5677 70.9561 60.1935C70.7646 59.4583 70.4681 58.5326 70.1694 59.8095C70.3587 60.8084 71.641 62.4868 72.2931 63.2341C73.0831 65.1959 73.4507 67.4531 72.8238 69.5331C69.3882 74.5792 67.1824 65.3097 66.3235 62.9048C65.4154 61.5448 59.3429 61.6651 57.9369 61.5502C55.4992 61.4551 49.6292 61.6236 47.1335 61.7888C40.8312 60.5207 34.7632 56.1036 28.9686 53.6582C23.9476 51.8595 15.793 52.4076 10.5106 51.8639C8.95032 51.7118 6.48742 51.0334 4.92609 51.4065C5.34077 50.8923 6.34518 48.1383 6.50165 47.6525C7.57609 47.2072 7.67675 48.3397 8.57065 48.8068C9.72497 49.1034 11.2961 48.5213 12.3793 48.9896C13.2765 48.8823 14.5523 48.5169 15.0523 47.7258C15.9232 47.8626 17.7942 46.519 18.4584 46.0409C20.5438 46.3702 23.4257 44.5441 25.2518 45.8571C25.7606 45.6995 26.8219 45.4107 27.1195 44.9599C28.5441 44.8756 30.728 46.0682 31.7335 44.6491C34.0925 44.311 32.7171 46.472 34.8102 45.0157C34.959 46.4227 33.3933 46.1579 34.1515 47.7805C34.692 47.8987 34.9087 48.3976 34.8835 48.8977C34.6231 49.5454 33.7653 50.471 33.1252 50.7654C32.8977 51.3901 33.7434 52.0422 34.3343 51.9919C35.5411 52.389 34.7993 53.0521 36.4405 53.4569C36.9832 53.5445 38.0434 53.9143 38.5095 53.4383C39.1014 53.6484 40.2875 54.1922 40.8531 54.446C42.5808 54.4515 41.4199 56.1387 43.2701 56.735C43.8773 56.7207 45.1585 57.0873 45.7242 57.3214C46.5175 57.5107 47.3665 58.351 48.0864 58.6584C48.9836 58.6158 49.8305 57.8302 49.918 56.9188C48.6598 54.6473 52.0056 53.0948 53.8547 53.5674C54.2038 53.7031 55.0648 54.086 54.9346 54.6112C55.6174 55.1441 56.8494 55.48 57.6995 55.271C58.3877 56.0478 58.3472 56.4395 59.5486 56.003C61.0202 56.6354 63.3912 56.8236 64.7851 57.5041C66.4778 56.4527 69.2087 55.411 70.5895 57.2667C70.9933 56.8947 71.8719 56.8411 72.3653 57.0107C73.9223 56.8203 74.2954 54.9034 74.5995 53.6232C75.2002 51.9022 76.8152 49.7587 75.918 47.8922C76.0766 47.5223 76.3305 46.9227 76.0821 46.519C76.4191 46.1361 76.93 45.8702 76.3928 45.2925L75.4595 46.0978C73.1793 44.6962 74.4321 46.7947 70.827 47.1963C69.8094 46.4435 69.654 45.7684 68.1901 45.4566C67.2174 45.3198 67.2262 45.9774 67.073 46.7017C66.0981 46.9304 64.8781 47.0825 64.7479 45.8045C64.2589 45.7269 63.4284 45.6557 63.191 45.1634C62.5192 45.1459 61.8791 45.6382 62.1111 44.5955C61.4327 44.0824 61.8397 43.7662 61.5804 43.1677C61.3966 43.1677 60.4863 42.1994 61.3966 42.2158C61.1187 41.858 61.2084 41.2825 61.3966 40.9159C61.0643 40.8229 61 40.0146 61.2686 39.7069C60.4152 39.7649 59.8331 40.2277 60.0421 39.0111C60.2379 37.9902 61.3977 37.5701 62.2391 38.1686C62.7194 37.9016 64.6298 38.2003 64.5466 37.5274C66.666 37.1685 64.4295 36.5296 63.54 36.4464C61.7872 36.1969 61.7019 38.0767 59.8407 37.4355C59.7346 36.8852 58.5464 36.7845 58.1372 36.6849C57.7334 36.7418 56.833 36.5099 56.7826 37.1062C55.3559 36.9267 56.09 37.7408 56.252 38.6259L55.1349 38.2966C54.6009 38.0734 54.567 37.7604 54.567 37.3622C53 38.5146 54.6455 39.9148 55 40.9159C55.6138 42.4412 56.2881 40.661 57.5693 43.3132C56.8942 43.1108 56.1984 42.6228 56.4347 43.6972C55.8942 43.4467 55.5 42.5146 54.823 43.2946C55 43.5146 54.5 43.6064 54.2913 43.9533C54.5035 44.4752 55.0473 45.7455 54.8777 46.3341C53.6534 44.9052 54.2453 46.5912 53.5779 45.8954C52.6763 44.3854 53.2683 46.1361 52.5341 45.3461C52.0986 44.3132 52.9488 44.2706 51.5997 43.6064C51.5111 43.1338 52.1982 42.6556 51.7102 42.288C51.4071 41.5615 50.7539 41.6151 50.9958 40.8229C50.6599 40.3306 49.011 39.5888 49.5307 38.9191C47.9169 37.9257 49.2911 36.2976 48.6335 34.7439C47.2232 32.7449 44.1454 32.0184 42.6092 30.3313C41.4669 29.7798 41.3499 27.3126 39.6244 27.7677C39.1134 27.6747 39.0369 26.6057 38.9471 26.2294C39.387 26.0587 39.1791 25.7589 38.9657 25.4974C37.2884 26.4941 36.3125 25.7403 36.6954 28.2262C36.9285 29.3575 38.0051 30.189 38.8749 30.8258C39.225 31.8182 40.1047 33.6629 41.0172 34.2505C41.9527 34.8183 42.6081 34.3479 43.3062 34.6531L42.7755 35.5142C43.7198 35.9081 45.5962 36.825 46.419 37.4191C47.0591 37.976 47.5656 38.5198 46.931 39.3229C46.1619 38.9148 46.3643 38.0471 45.3752 38.0231C44.6903 37.5613 44.49 37.9957 44.1487 38.5537C43.6847 39.4203 43.9616 39.5231 44.7351 39.9082C45.083 40.6271 44.9703 41.1982 44.0753 41.2814C44.2504 42.1118 43.4769 42.6337 43.1048 43.2596C42.4702 43.241 42.3127 42.683 42.7755 42.2705C42.7022 41.7114 42.7514 41.4718 43.362 41.4105C43.2482 40.7113 42.735 39.2988 42.4462 38.6456C41.7328 38.6905 41.1102 38.0887 40.9264 37.4366C39.9012 37.1138 39.1736 35.7046 37.9963 35.9715C36.7403 34.6192 34.8704 33.3686 33.8211 31.8149C33.7664 31.1355 33.4185 29.8706 32.6668 29.6179C31.6164 29.026 30.6459 28.5172 29.8472 29.8192C28.2005 30.8969 28.6962 29.8564 27.1556 31.7963C25.6096 31.9112 23.9509 30.4133 22.3393 31.0457C20.7834 32.1629 22.1259 33.5841 21.4607 34.7078C20.7287 35.3774 19.0142 36.2068 18.0546 36.4475C17.4714 37.8611 15.1005 39.6391 16.2788 41.2453C17.3763 41.8886 15.0206 41.9105 15.0523 43.7541L13.4954 44.4686C13.3859 45.0102 13.003 45.5616 12.3596 45.4752C10.7425 46.3144 8.43608 44.915 7.36054 47.1055L6.26203 46.7575C6.23796 46.4873 5.72043 45.9107 5.65807 45.659C6.12307 44.915 4.88014 44.9424 4.52235 44.7432L3.07591 45.2739C2.78268 45.0551 1.82859 44.8253 1.46425 45.0179V45.0157Z"
    stroke="black" stroke-width="1.2" stroke-miterlimit="10" />
  <path
    d="M29.9752 36.8678C31.3188 37.1217 31.1185 35.9006 32.1722 36.2267C32.333 36.7125 33.0322 37.8329 32.4282 38.2596C32.3265 38.9631 32.8845 41.1754 31.4949 40.5124C31.4654 41.2553 30.6645 41.3188 30.2498 40.8056L30.4325 39.0845C30.6459 38.2224 29.9456 37.6403 29.9752 36.8689V36.8678Z"
    stroke="black" stroke-width="1.2" stroke-miterlimit="10" />
  <path
    d="M31.6044 32.7659C30.1951 33.1237 30.6514 35.2091 31.6591 35.8054C32.2981 35.1588 32.402 30.3566 31.6044 32.7659Z"
    stroke="black" stroke-width="1.2" stroke-miterlimit="10" />
  <path
    d="M37.4098 42.7642C36.8387 43.4109 37.1308 44.0116 37.9777 44.0094C38.4438 44.354 39.5511 45.1801 40.1747 45.1079C40.3191 45.5696 41.0281 45.7337 41.4384 45.7852C41.5358 45.3355 41.8444 44.6659 41.5303 44.2468C41.7032 43.8168 42.0085 42.9349 42.1343 42.4885C41.3815 42.7314 40.2852 42.7927 39.516 42.9831C38.9033 42.8387 38.0411 42.6942 37.4098 42.7632V42.7642Z"
    stroke="black" stroke-width="1.2" stroke-miterlimit="10" />
  <path
    d="M55.5922 48.0554C55.3734 48.9876 56.2181 48.8453 56.8373 48.9898C57.4336 49.4657 58.3943 49.5259 59.1077 49.3005C59.4819 49.3629 60.006 49.3607 60.1701 48.9339C59.1274 48.6539 57.8516 48.342 56.7465 48.3475C56.7782 47.7173 55.9314 48.0674 55.5933 48.0543L55.5922 48.0554Z"
    stroke="black" stroke-width="1.2" stroke-miterlimit="10" />
  <path
    d="M62.459 46.7368C62.564 47.7368 62.7369 47.321 63.3201 46.9195C63.5761 46.1033 62.8616 46.4425 62.459 46.7368Z"
    stroke="black" stroke-width="1.2" stroke-miterlimit="10" />
  <path
    d="M70.1682 49.3924C70.9089 51.1004 72.0534 49.2119 73.0983 49.3738C72.6596 48.6014 73.362 48.4471 73.8675 48.0554C73.6104 47.842 72.7679 48.3519 72.5305 48.4405H71.1573C71.096 48.8968 70.5709 49.2611 70.1682 49.3924Z"
    stroke="black" stroke-width="1.2" stroke-miterlimit="10" />
  <path
    d="M10.808 1.66621C12.3606 1.45942 13.7611 0.00202745 14.4384 2.26798C15.562 2.88836 16.5654 4.30088 16.5041 5.61713C16.9735 6.34582 17.0971 6.70361 16.3837 7.32179C16.7251 7.93998 16.9166 7.71787 17.3466 7.34149C18.2646 7.27803 19.1738 7.44434 19.3521 8.52534C19.2679 9.02755 18.9615 9.79016 18.4692 10.0298C18.2569 10.3055 17.8455 11.218 17.4067 11.1928C17.3236 11.7705 18.4418 11.4193 18.711 11.474C19.1213 12.159 18.1037 12.4172 17.6879 12.6776C17.2065 13.0244 16.4669 13.1426 15.9428 12.8176C15.5872 12.9577 14.8771 13.345 14.5182 13.0179C14.5018 13.787 13.6309 13.1601 13.2545 13.1185C12.9449 13.9183 11.8409 13.3702 11.2293 13.2991C9.8791 13.6689 11.1932 14.8877 9.40425 14.3024C8.18319 13.9752 8.29479 15.3331 6.95667 14.7641C7.72803 14.1601 8.71932 13.3603 8.76199 12.2968C10.2084 11.543 11.424 12.7017 11.8507 11.1338C10.9864 10.7891 10.8879 12.1393 9.86488 10.8121C9.30687 11.0845 9.16135 11.0298 9.02239 10.4105C8.79919 10.4959 8.14052 10.9215 7.9195 10.6316C7.16783 9.62495 8.68759 9.57024 9.32328 9.28795C9.73358 8.45422 9 8.01465 8.5 7.51465C8.74229 7.01465 8.63397 6.59638 8.74229 5.89832C9.02567 5.8469 9.47755 6.13575 9.68544 6.29987L11.1702 6.23969C11.4196 5.48146 11.0372 4.75688 11.2293 4.01465C10.7664 3.58272 10.6253 3.25052 10.3277 2.86976L10.8091 1.66621H10.808Z"
    stroke="black" stroke-width="1.2" stroke-miterlimit="10" />
</svg>
